{
    "filename":"附設國中部.(csv)",
    "fileencode":"utf-8-sig",
    "sheets":[
        {
            "areas":[
                {
                    "from":0,
                    "to":6,
                    "pos":0,
                    "header":"代碼",
                    "tailer":"",
                    "table":"affiliated_junior",
					"check_header":{
						"func":"keyheader",
						"independ":true,
						"params":["代碼","學校名稱","公/私立","縣市名稱","地址","電話","網址"]
					},
                    "columns":[
                        {
                            "name":"id",
                            "header":"代碼"                        
                        },
                        {
                            "name":"name",
                            "header":"學校名稱"
                        },
                        {
                            "name":"established",
                            "header":"公/私立"
                        },
                        {
                            "name":"city",
                            "header":"縣市名稱"
                        },
                        {
                            "name":"address",
                            "header":"地址"
                        },
                        {
                            "name":"tel",
                            "header":"電話"
                        },
                        {
                            "name":"url",
                            "header":"網址"
                        }
                    ]
                }
            ]
        }
    ]
}