{
    "filename":"carrefour.(csv)",
    "sheets":[
        {
            "areas":[
                {
                    "from":0,
                    "to":70,
                    "pos":0,
                    "header":"id",
                    "tailer":"",
                    "table":"carrefour",
					"check_header":{
						"func":"keyheader",
						"independ":true,
						"params":["id", "name", "is24h", "iscibc", "status", "status_name", "code", "sn", "sort", "store_area_id", "store_group_id", "store_type_id", "store_area_name", "store_group_name", "store_type_name", "fb", "line", "contact_name", "contact_email", "contact_tel", "contact_tel_ext", "contact_fax", "area_id", "city_id", "street", "area_name", "city_name", "address", "cibc_address", "latitude", "longitude", "business_hours", "business_hours_special", "parking_info", "parking_spaces_moto", "parking_spaces_car", "parking_spaces_handicapped", "parking_spaces_parent", "bus_info", "traffic_info", "en_name", "en_business_hours", "en_business_hours_special", "en_street", "en_parking_info", "en_bus_info", "en_traffic_info", "scs_number", "scs_number_id", "mon_start", "mon_end", "tue_start", "tue_end", "wed_start", "wed_end", "thur_start", "thur_end", "fri_start", "fri_end", "sat_start", "sat_end", "sun_start", "sun_end", "store_link", "scango_flg", "created_at", "updated_at"]
					},
                    "columns":[
                        {
                            "name":"id",
                            "header":"id"
                        },
                        {
                            "name":"name",
                            "header":"name"
                        },
                        {
                            "name":"is24h",
                            "header":"is24h"
                        },
                        {
                            "name":"iscibc",
                            "header":"iscibc"
                        },
                        {
                            "name":"status",
                            "header":"status"
                        },
                        {
                            "name":"status_name",
                            "header":"status_name"
                        },
                        {
                            "name":"code",
                            "header":"code"
                        },
                        {
                            "name":"sn",
                            "header":"sn"
                        },
                        {
                            "name":"sort",
                            "header":"sort"
                        },
                        {
                            "name":"store_area_id",
                            "header":"store_area_id"
                        },
                        {
                            "name":"store_group_id",
                            "header":"store_group_id"
                        },
                        {
                            "name":"store_type_id",
                            "header":"store_type_id"
                        },
                        {
                            "name":"store_area_name",
                            "header":"store_area_name"
                        },
                        {
                            "name":"store_group_name",
                            "header":"store_group_name"
                        },
                        {
                            "name":"store_type_name",
                            "header":"store_type_name"
                        },
                        {
                            "name":"fb",
                            "header":"fb"
                        },
                        {
                            "name":"line",
                            "header":"line"
                        },
                        {
                            "name":"contact_name",
                            "header":"contact_name"
                        },
                        {
                            "name":"contact_email",
                            "header":"contact_email"
                        },
                        {
                            "name":"contact_tel",
                            "header":"contact_tel"
                        },
                        {
                            "name":"contact_tel_ext",
                            "header":"contact_tel_ext"
                        },
                        {
                            "name":"contact_fax",
                            "header":"contact_fax"
                        },
                        {
                            "name":"area_id",
                            "header":"area_id"
                        },
                        {
                            "name":"city_id",
                            "header":"city_id"
                        },
                        {
                            "name":"street",
                            "header":"street"
                        },
                        {
                            "name":"area_name",
                            "header":"area_name"
                        },
                        {
                            "name":"city_name",
                            "header":"city_name"
                        },
                        {
                            "name":"address",
                            "header":"address"
                        },
                        {
                            "name":"cibc_address",
                            "header":"cibc_address"
                        },
                        {
                            "name":"latitude",
                            "header":"latitude"
                        },
                        {
                            "name":"longitude",
                            "header":"longitude"
                        },
                        {
                            "name":"business_hours",
                            "header":"business_hours"
                        },
                        {
                            "name":"business_hours_special",
                            "header":"business_hours_special"
                        },
                        {
                            "name":"parking_info",
                            "header":"parking_info"
                        },
                        {
                            "name":"parking_spaces_moto",
                            "header":"parking_spaces_moto"
                        },
                        {
                            "name":"parking_spaces_car",
                            "header":"parking_spaces_car"
                        },
                        {
                            "name":"parking_spaces_handicapped",
                            "header":"parking_spaces_handicapped"
                        },
                        {
                            "name":"parking_spaces_parent",
                            "header":"parking_spaces_parent"
                        },
                        {
                            "name":"bus_info",
                            "header":"bus_info"
                        },
                        {
                            "name":"traffic_info",
                            "header":"traffic_info"
                        },
                        {
                            "name":"en_name",
                            "header":"en_name"
                        },
                        {
                            "name":"en_business_hours",
                            "header":"en_business_hours"
                        },
                        {
                            "name":"en_business_hours_special",
                            "header":"en_business_hours_special"
                        },
                        {
                            "name":"en_street",
                            "header":"en_street"
                        },
                        {
                            "name":"en_parking_info",
                            "header":"en_parking_info"
                        },
                        {
                            "name":"en_bus_info",
                            "header":"en_bus_info"
                        },
                        {
                            "name":"en_traffic_info",
                            "header":"en_traffic_info"
                        },
                        {
                            "name":"scs_number",
                            "header":"scs_number"
                        },
                        {
                            "name":"scs_number_id",
                            "header":"scs_number_id"
                        },
                        {
                            "name":"mon_start",
                            "header":"mon_start"
                        },
                        {
                            "name":"mon_end",
                            "header":"mon_end"
                        },
                        {
                            "name":"tue_start",
                            "header":"tue_start"
                        },
                        {
                            "name":"tue_end",
                            "header":"tue_end"
                        },
                        {
                            "name":"wed_start",
                            "header":"wed_start"
                        },
                        {
                            "name":"wed_end",
                            "header":"wed_end"
                        },
                        {
                            "name":"thur_start",
                            "header":"thur_start"
                        },
                        {
                            "name":"thur_end",
                            "header":"thur_end"
                        },
                        {
                            "name":"fri_start",
                            "header":"fri_start"
                        },
                        {
                            "name":"fri_end",
                            "header":"fri_end"
                        },
                        {
                            "name":"sat_start",
                            "header":"sat_start"
                        },
                        {
                            "name":"sat_end",
                            "header":"sat_end"
                        },
                        {
                            "name":"sun_start",
                            "header":"sun_start"
                        },
                        {
                            "name":"sun_end",
                            "header":"sun_end"
                        },
                        {
                            "name":"store_link",
                            "header":"store_link"
                        },
                        {
                            "name":"scango_flg",
                            "header":"scango_flg"
                        },
                        {
                            "name":"created_at",
                            "header":"created_at"
                        },
                        {
                            "name":"updated_at",
                            "header":"updated_at"
                        },
                        {
                            "name":"updated_at_1",
                            "source":67
                        }
                    ]
                }
            ]
        }
    ]
}