{
    "filename":"空大及大專附設進修學校.(csv)",
    "fileencode":"utf-8-sig",
    "sheets":[
        {
            "areas":[
                {
                    "from":0,
                    "to":6,
                    "pos":0,
                    "header":"代碼",
                    "tailer":"",
                    "table":"continuing_school",
					"check_header":{
						"func":"keyheader",
						"independ":true,
						"params":["代碼","學校名稱","公/私立","縣市名稱","地址","電話","網址"]
					},
                    "columns":[
                        {
                            "name":"id",
                            "header":"代碼"                        
                        },
                        {
                            "name":"name",
                            "header":"學校名稱"
                        },
                        {
                            "name":"established",
                            "header":"公/私立"
                        },
                        {
                            "name":"city",
                            "header":"縣市名稱"
                        },
                        {
                            "name":"address",
                            "header":"地址",
                            "rule":"userfunc.address_split('{}')"
                        },
                        {
                            "name":"tel",
                            "header":"電話"
                        },
                        {
                            "name":"url",
                            "header":"網址"
                        },
                        {
                            "name":"lon",
                            "source":-1
                        }
                        ,
                        {
                            "name":"lat",
                            "source":-1
                        }
                        ,
                        {
                            "name":"comparison",
                            "source":-1
                        }
                        ,
                        {
                            "name":"codebase",
                            "source":-1
                        }
                        ,
                        {
                            "name":"code1",
                            "source":-1
                        }
                        ,
                        {
                            "name":"code2",
                            "source":-1
                        }
                        ,
                        {
                            "name":"time",
                            "source":-1
                        }
                    ]
                }
            ]
        }
    ]
}