{
    "filename":"incineratorchimney.(csv)",
    "sheets":[
        {
            "areas":[
                {
                    "from":0,
                    "to":8,
                    "pos":1,
                    "header":"Address(地",
                    "tailer":"",
                    "table":"incineratorchimney",
					"check_header":{
						"func":"keyheader",
						"independ":true,
						"params":["Address(地","Coor_x(X坐","Coor_y(Y座","Epano(測站","Inciner_na","Tel(電話)","Towncode(","geometry"]
					},
                    "columns":[
                        {
                            "name":"index",
                            "source":0                      
                        },
                        {
                            "name":"address",
                            "header":"Address(地"
                        },
                        {
                            "name":"lat",
                            "header":"Coor_x(X坐"
                        },
                        {
                            "name":"lon",
                            "header":"Coor_y(Y座"
                        },
                        {
                            "name":"eapno",
                            "header":"Epano(測站"
                        },
                        {
                            "name":"inciner_name",
                            "header":"Inciner_na"
                        },
                        {
                            "name":"tel",
                            "header":"Tel(電話)"
                        },
                        {
                            "name":"town",
                            "header":"Towncode("
                        },
                        {
                            "name":"geometry",
                            "header":"geometry",
                            "rule":"userfunc.polygonuse('{}')"
                        }

                    ]
                }
            ]
        }
    ]
}