{
    "filename":"incineratorarea.(csv)",
    "fileencode":"utf-8-sig",
    "sheets":[
        {
            "areas":[
                {
                    "from":0,
                    "to":7,
                    "pos":1,
                    "header":"EPANO",
                    "tailer":"",
                    "table":"incineratorarea",
					"check_header":{
						"func":"keyheader",
						"independ":true,
						"params":["EPANO","INCINER_NA","ADDRESS","TEL","CY_NAME","SITUATION","geometry"]
					},
                    "columns":[
                        {
                            "name":"INDEX",
                            "source":0                     
                        },
                        {
                            "name":"EPANO",
                            "header":"EPANO"
                        },
                        {
                            "name":"INCINER_NA",
                            "header":"INCINER_NA"
                        },
                        {
                            "name":"ADDRESS",
                            "header":"ADDRESS"
                        },
                        {
                            "name":"TEL",
                            "header":"TEL"
                        },
                        {
                            "name":"CY_NAME",
                            "header":"CY_NAME"
                        },
                        {
                            "name":"SITUATION",
                            "header":"SITUATION"
                        },
                        {
                            "name":"GEOMETRY",
                            "header":"geometry",
							"rule":"userfunc.polygonuse('{}')"
                        }
                    ]
                }
            ]
        }
    ]
}