{
    "filename":"people_1.(csv)",
    "sheets":[
        {
            "areas":[
                {
                    "from":0,
                    "to":6,
                    "pos":0,
                    "header":"INFO_TIME",
                    "tailer":"",
                    "table":"people_1",
					"check_header":{
						"func":"keyheader",
						"independ":true,
						"params":["INFO_TIME","CODE2","CODE1","H_CNT","P_CNT","M_CNT","F_CNT"]
					},
                    "columns":[
                        {
                            "name":"INFO_TIME",
                            "header":"INFO_TIME"                    
                        },
                        {
                            "name":"CODE2",
                            "header":"CODE2"
                        },
                        {
                            "name":"CODE1",
                            "header":"CODE1"
                        },                        
                        {
                            "name":"H_CNT",
                            "header":"H_CNT"
                        },
                        {
                            "name":"P_CNT",
                            "header":"P_CNT"
                        },
                        {
                            "name":"M_CNT",
                            "header":"M_CNT"
                        },
                        {
                            "name":"F_CNT",
                            "header":"F_CNT"
                        }
                    ]
                }
            ]
        }
    ]
}